Dead by Daylight Data Visualization
…
dead_by_daylight <- read_csv('Dead by Daylight data - Sheet 1.csv')

Rows: 2879 Columns: 8
── Column specification ────────────────────────────────────────────────────────
Delimiter: ","
chr (4): Map, Killer, Comments, Season
dbl (3): # Finished generators, # Escaped Survivors, # Hatch escapes
lgl (1): SBMM

ℹ Use `spec()` to retrieve the full column specification for this data.
ℹ Specify the column types or set `show_col_types = FALSE` to quiet this message.

dead_by_daylight

# A tibble: 2,879 × 8
   Map   Killer       `# Finished generators` `# Escaped Survivors` Comments    
   <chr> <chr>                          <dbl>                 <dbl> <chr>       
 1 BAP   Deathslinger                       5                     4 <NA>        
 2 MCM   Cannibal                           2                     0 <NA>        
 3 SH    Huntress                           5                     4 Farm        
 4 CF    Myers                              3                     0 Mori        
 5 AVW   Hillbilly                          5                     4 1 hatch     
 6 RF    Ghost Face                         5                     4 Fake AFK + …
 7 OR    Cannibal                           5                     1 1 hatch + c…
 8 HA    Huntress                           5                     4 Farm + 1 ha…
 9 CP    Spirit                             5                     0 Facecamp + …
10 YAM   Doctor                             3                     0 <NA>        
# ℹ 2,869 more rows
# ℹ 3 more variables: `# Hatch escapes` <dbl>, Season <chr>, SBMM <lgl>
…
